New Color = CB*(1-SO/3) + CO*SO/3
                       


CB = Color of Background
SO = Sprite Opacity
CO = Color of Object

0 <= Final Opacity <= 1
0 <= Opacity       <= 3
Opacity = 0%; 33,3%; 66,6% or 100%
 00 = 0%
 01 = 33%
 10 = 66%
 11 = 100%


green = 0*1/3 + 7*2/3
5*1/3 + 7*2/3 =~6 (6,3)
1+2/3 + 4+2/3

color = CB - CBSO/3 + CO*SO/3 

 7*